Formato de Sobres,,,,,,,,,,,,,,
Empleado, Por Pagar,500,200,100,50,20,10,5,1,0.5,0.25,0.1,0.05,0.01,
Alfonso,1203.77,2,1,0,0,0,0,0,3,1,1,0,0,2,
Ana,4340.96,8,1,1,0,2,0,0,0,1,1,2,0,1,
Antonio,4022.71,8,0,0,0,1,0,0,2,1,0,2,0,1,
Carlos,3361.34,6,1,1,1,0,1,0,1,0,1,0,1,4,
Elena,5459.1,10,2,0,1,0,0,1,4,0,0,1,0,0,
Emilio,3736.02,7,1,0,0,1,1,1,1,0,0,0,0,2,
Erick,5421.81,10,2,0,0,1,0,0,1,1,1,0,1,1,
Marta,3008.03,6,0,0,0,0,0,1,3,0,0,0,0,3,
Silvia,4809.59,9,1,1,0,0,0,1,4,1,0,0,1,4,
Sofia,3662.47,7,0,1,1,0,1,0,2,0,1,2,0,2,
