,,500,200,100,50,20,10,5,1,0.5,0.25,0.1,0.05,0.01,,
Alfonso,1203.77,2,1,,,,,,3,1,1,,,2,1203.77,0
Ana,4340.96,8,1,1,,2,,,,1,1,2,,1,4340.96,0
Antonio,4022.71,8,,,,1,,,2,1,,2,,1,4022.71,0
Carlos,3361.34,6,1,1,1,,1,,1,,1,,1,4,3361.34,0
Elena,5459.10,10,2,,1,,,1,4,,,1,,0,5459.10,0
Emilio,3736.02,7,1,,,1,1,1,1,,,,,2,3736.02,0
Erick,5421.81,10,2,,,1,,,1,1,1,,1,1,5421.81,0
Marta,3008.03,6,,,,,,1,3,,,,,3,3008.03,0
Silvia,4809.59,9,1,1,,,,1,4,1,,,1,4,4809.59,0
Sofia,3662.47,7,,1,1,,1,,2,,1,2,,2,3662.47,0
,39025.80,73,9,4,3,5,3,4,21,5,5,7,3,20,39025.80,0
,,,,,,,,,,,,,,,,
,,73,500,36500,,,,,,,,,,,,
,,9,200,1800,,,,,,,,,,,,
,,4,100,400,,,,,,,,,,,,
,,3,50,150,,,,,,,,,,,,
,,5,20,100,,,,,,,,,,,,
,,3,10,30,,,,,,,,,,,,
,,4,5,20,,,,,,,,,,,,
,,21,1,21,,,,,,,,,,,,
,,5,0.5,2.5,,,,,,,,,,,,
,,5,0.25,1.25,,,,,,,,,,,,
,,7,0.1,0.7,,,,,,,,,,,,
,,3,0.05,0.15,,,,,,,,,,,,
,,20,0.01,0.2,,,,,,,,,,,,
,,,,39025.8,,,,,,,,,,,,
